mvMOBSTER Vignette
================
Giulio Caravagna
21 February 2019

## Example data

``` r
data("example_mvmobster", package = 'mvmobster')
print(example_mvmobster)
```

    ## $muts
    ## # A tibble: 500 x 37
    ##    id    patient region gene  chr     from     to ref   alt   vartype
    ##    <chr> <chr>   <chr>  <chr> <chr>  <int>  <int> <chr> <chr> <chr>  
    ##  1 chr5… Set6    inter… LYSM… chr5  8.98e7 8.98e7 G     A     SNP    
    ##  2 chrY… Set6    inter… TTTY… chrY  1.00e7 1.00e7 G     T     SNP    
    ##  3 chr1… Set6    intro… TRHDE chr12 7.29e7 7.29e7 C     A     SNP    
    ##  4 chr1… Set6    inter… NLK(… chr17 2.66e7 2.66e7 G     A     SNP    
    ##  5 chr1… Set6    intro… GALN… chr11 1.14e7 1.14e7 T     G     SNP    
    ##  6 chr1… Set6    intro… MRPL… chr1  5.47e7 5.47e7 A     G     SNP    
    ##  7 chr1… Set6    intro… LMNB2 chr19 2.45e6 2.45e6 C     G     SNP    
    ##  8 chr1… Set6    inter… NRG3… chr10 8.48e7 8.48e7 A     C     SNP    
    ##  9 chr3… Set6    inter… RBMS… chr3  3.01e7 3.01e7 A     G     SNP    
    ## 10 chr6… Set6    inter… LOC1… chr6  1.00e7 1.00e7 C     T     SNP    
    ## # ... with 490 more rows, and 27 more variables: function. <chr>,
    ## #   mutlocation <chr>, cosmic <chr>, Set6_42.VAF <dbl>, Set6_44.VAF <dbl>,
    ## #   Set6_45.VAF <dbl>, Set6_46.VAF <dbl>, Set6_47.VAF <dbl>,
    ## #   Set6_48.VAF <dbl>, Set6_42.DP <dbl>, Set6_44.DP <dbl>,
    ## #   Set6_45.DP <dbl>, Set6_46.DP <dbl>, Set6_47.DP <dbl>,
    ## #   Set6_48.DP <dbl>, Set6_42.NV <dbl>, Set6_44.NV <dbl>,
    ## #   Set6_45.NV <dbl>, Set6_46.NV <dbl>, Set6_47.NV <dbl>,
    ## #   Set6_48.NV <dbl>, Set6_42_N.VAF <dbl>, Set6_44_N.VAF <dbl>,
    ## #   Set6_45_N.VAF <dbl>, Set6_46_N.VAF <dbl>, Set6_47_N.VAF <dbl>,
…
``` r
#plot(x)
```

## Data manipulation

To accessing the data (without modifying it)

``` r
VAF(x)
```

    ## # A tibble: 1,299 x 4
    ##    id       variable  value sample 
    ##    <chr>    <chr>     <dbl> <chr>  
    ##  1 __mut252 VAF      0      Set6_42
    ##  2 __mut256 VAF      0      Set6_42
    ##  3 __mut272 VAF      0      Set6_42
    ##  4 __mut348 VAF      0      Set6_42
    ##  5 __mut415 VAF      0      Set6_42
    ##  6 __mut441 VAF      0.0538 Set6_42
    ##  7 __mut252 VAF      0      Set6_44
    ##  8 __mut256 VAF      0.05   Set6_44
    ##  9 __mut272 VAF      0      Set6_44
    ## 10 __mut348 VAF      0.0439 Set6_44
    ## # ... with 1,289 more rows

``` r
VAF_table(x)
```

    ## # A tibble: 433 x 4
    ##    id       Set6_42.VAF Set6_44.VAF Set6_45.VAF
    ##    <chr>          <dbl>       <dbl>       <dbl>
    ##  1 __mut252      0           0                0
    ##  2 __mut256      0           0.05             0
    ##  3 __mut272      0           0                0
    ##  4 __mut348      0           0.0439           0
    ##  5 __mut415      0           0.0463           0
    ##  6 __mut441      0.0538      0                0
    ##  7 __mut6        0           0                0
    ##  8 __mut23       0           0                0
    ##  9 __mut69       0.0460      0                0
    ## 10 __mut87       0           0                0
    ## # ... with 423 more rows
…
You ca filter …

## Fitting MOBSTER

``` r
fit = mobster_fit_multivariate(x)
```

    ## 
    ## -----------------------------------
    ## Fitting with MOBSTER sample Set6_42
    ## -----------------------------------
    ## # A tibble: 154 x 3
    ##    id       sample     VAF
    ##    <chr>    <chr>    <dbl>
    ##  1 __mut10  Set6_42 0.509 
    ##  2 __mut100 Set6_42 0.0820
    ##  3 __mut102 Set6_42 0.406 
    ##  4 __mut105 Set6_42 0.207 
    ##  5 __mut109 Set6_42 0.256 
    ##  6 __mut110 Set6_42 0.404 
    ##  7 __mut116 Set6_42 0.408 
    ##  8 __mut12  Set6_42 0.174 
    ##  9 __mut122 Set6_42 0.417 
    ## 10 __mut126 Set6_42 0.417 
    ## # ... with 144 more rows
    ##  [ MOBSTER fit ] 
    ## 
    ##  - N = 154 samples with K = 1 2 3 Beta; Pareto Type-I power-law tail: YES NO
    ##  - Fit   :  MM for 2000 max. steps with peaks initialization; ε = 1e-10 . Model selection:  reICL
    ##  - Runs  :  5  x  3  x  2 = 30 
    ##  [easypar] Registering multiple cores:  2 out of 4 [ratio 80%] 
    ##  [easypar] Stopping parallel clusters.   
    ## 
…
    ## Tail OFF
    ##   Beta C1    n = 1 (0.01)     Mean = 0.88
    ##   Beta C2    n = 79 (0.51)    Mean = 0.34
    ##   Beta C3    n = 74 (0.48)    Mean = 0.08
    ## 
    ##   Scores (model selection)  
    ##        NLL       BIC       AIC  entropy       ICL reduced.entropy
    ##  -150.8785 -246.3506 -279.7571 4.341417 -242.0092        4.341417
    ##      reICL size
    ##  -242.0092   11
    ## 
    ## -----------------------------------
    ## Fitting with MOBSTER sample Set6_44
    ## -----------------------------------
    ## # A tibble: 122 x 3
    ##    id       sample    VAF
    ##    <chr>    <chr>   <dbl>
    ##  1 __mut10  Set6_44 0.513
    ##  2 __mut102 Set6_44 0.212
    ##  3 __mut109 Set6_44 0.377
    ##  4 __mut110 Set6_44 0.355
    ##  5 __mut116 Set6_44 0.303
    ##  6 __mut126 Set6_44 0.414
    ##  7 __mut127 Set6_44 0.351
    ##  8 __mut13  Set6_44 0.358
    ##  9 __mut131 Set6_44 0.363
    ## 10 __mut139 Set6_44 0.486
    ## # ... with 112 more rows
    ##  [ MOBSTER fit ] 
    ## 
    ##  - N = 122 samples with K = 1 2 3 Beta; Pareto Type-I power-law tail: YES NO
    ##  - Fit   :  MM for 2000 max. steps with peaks initialization; ε = 1e-10 . Model selection:  reICL
    ##  - Runs  :  5  x  3  x  2 = 30 
    ##  [easypar] Registering multiple cores:  2 out of 4 [ratio 80%] 
    ##  [easypar] Stopping parallel clusters.   
    ## 
…
    ## 
    ##   Components (fit)  
    ## Tail OFF
    ##   Beta C1    n = 122 (1)      Mean = 0.25
    ## 
    ##   Scores (model selection)  
    ##        NLL       BIC       AIC entropy       ICL reduced.entropy     reICL
    ##  -68.16518 -112.3103 -126.3304       0 -112.3103               0 -112.3103
    ##  size
    ##     5
    ## 
    ## -----------------------------------
    ## Fitting with MOBSTER sample Set6_45
    ## -----------------------------------
    ## # A tibble: 138 x 3
    ##    id       sample     VAF
    ##    <chr>    <chr>    <dbl>
    ##  1 __mut102 Set6_45 0.327 
    ##  2 __mut109 Set6_45 0.309 
    ##  3 __mut110 Set6_45 0.419 
    ##  4 __mut116 Set6_45 0.447 
    ##  5 __mut119 Set6_45 0.0556
    ##  6 __mut122 Set6_45 0.407 
    ##  7 __mut124 Set6_45 0.0490
    ##  8 __mut126 Set6_45 0.405 
    ##  9 __mut127 Set6_45 0.446 
    ## 10 __mut13  Set6_45 0.432 
    ## # ... with 128 more rows
    ##  [ MOBSTER fit ] 
    ## 
    ##  - N = 138 samples with K = 1 2 3 Beta; Pareto Type-I power-law tail: YES NO
    ##  - Fit   :  MM for 2000 max. steps with peaks initialization; ε = 1e-10 . Model selection:  reICL
    ##  - Runs  :  5  x  3  x  2 = 30 
    ##  [easypar] Registering multiple cores:  2 out of 4 [ratio 80%] 
    ##  [easypar] Stopping parallel clusters.   
    ## 
…
Projecting tail mutations

``` r
fit_prj = mobster_flt_projection(fit)
```

    ## 
    ## --------------------------
    ## Global projection strategy
    ## --------------------------
    ##  Entries to project 71 
    ## # A tibble: 71 x 5
    ##    id       Set6_42 Set6_44 Set6_45 projected
    ##    <chr>    <chr>   <chr>   <chr>   <lgl>    
    ##  1 __mut174 C3      <NA>    Tail    TRUE     
    ##  2 __mut250 C2      C1      Tail    TRUE     
    ##  3 __mut287 C3      <NA>    Tail    TRUE     
    ##  4 __mut297 C3      <NA>    Tail    TRUE     
    ##  5 __mut308 C2      C1      Tail    TRUE     
    ##  6 __mut319 C2      C1      Tail    TRUE     
    ##  7 __mut337 C2      C1      Tail    TRUE     
    ##  8 __mut346 C2      C1      Tail    TRUE     
    ##  9 __mut381 C3      C1      Tail    TRUE     
    ## 10 __mut385 C2      C1      Tail    TRUE     
    ## # ... with 61 more rows
…
