Cancer Evolution Analysis • mvmobster
…
x = analyze_VIBER(x)
#> Loading required package: VIBER
#> 
#> Attaching package: 'VIBER'
#> The following objects are masked from 'package:mobster':
#> 
#>     choose_clusters, plot_latent_variables,
#>     plot_mixing_proportions
#> 
#> =-=-=-=-=-=-=-=-=-=-=-=-=-=-=-=-=-=-=-=-=-=-
#>  Variational Binomial clustering with VIBER
#> =-=-=-=-=-=-=-=-=-=-=-=-=-=-=-=-=-=-=-=-=-=-
#> NV values   
#> # A tibble: 81 x 3
#>    id                            Set42 Set44
#>    <chr>                         <dbl> <dbl>
#>  1 chr6:10048079:10048079:C:T       27    20
#>  2 chr3:180176259:180176259:G:A     22    24
#>  3 chr7:97655791:97655791:T:A        3     3
#>  4 chr5:113199069:113199069:T:C     45    25
#>  5 chr19:4066877:4066877:G:T        30    19
#>  6 chr3:147617725:147617725:T:C     25    22
#>  7 chr9:82830945:82830945:G:T       23    20
#>  8 chr3:145726355:145726355:G:A     33    32
#>  9 chr14:32166895:32166895:A:C      32    26
#> 10 chr12:130424880:130424880:G:A    26    29
#> # … with 71 more rows
#> DP values  
#> # A tibble: 81 x 3
#>    id                            Set42 Set44
#>    <chr>                         <dbl> <dbl>
#>  1 chr6:10048079:10048079:C:T       53    39
#>  2 chr3:180176259:180176259:G:A     70    67
#>  3 chr7:97655791:97655791:T:A       38    25
#>  4 chr5:113199069:113199069:T:C     94    63
#>  5 chr19:4066877:4066877:G:T        82    70
#>  6 chr3:147617725:147617725:T:C     79    67
#>  7 chr9:82830945:82830945:G:T       75    64
#>  8 chr3:145726355:145726355:G:A     83    66
#>  9 chr14:32166895:32166895:A:C      85    77
#> 10 chr12:130424880:130424880:G:A    80    74
#> # … with 71 more rows
…
