Analysis of multi-sample datasets • mvmobster
…
In the future, direct support of VCF input files will be implemented. Untill then you can use use packages like vcfR to extract mutation calls from VCF files

Wide format

This format is convenient if you generate joint calls across all samples, and you end up with a multi-sample VCF file, for instance.

The minimum information required are:

A dataframe with mutation locations as chr, from, to in hg19 coordinates, plus ref and alt for the reference and alternative alleles. For every sample X, this dataframe must contain columns X.DP, X.NV and X.VAF for the depth (total number of reads with both alleles), the number of reads with the alternative allele and the allele frequency so that VAF = NV/DP. Chromosome names must be in the format chr1, chr2, etc.; alleles should be characters and all other fields numeric.

# Example wide format for mutations - in this case columns region, gene and patient are extra
example_input_formats$wide_mutations
#> # A tibble: 500 x 14
#>    chr     from     to ref   alt   region gene  Set6_42.VAF Set6_42.DP
#>    <chr>  <int>  <int> <chr> <chr> <chr>  <chr>       <dbl>      <dbl>
#>  1 chr5  8.98e7 8.98e7 G     A     inter… LYSM…       0              0
#>  2 chrY  1.00e7 1.00e7 G     T     inter… TTTY…       0              0
#>  3 chr12 7.29e7 7.29e7 C     A     intro… TRHDE       0              0
#>  4 chr17 2.66e7 2.66e7 G     A     inter… NLK(…       0              0
#>  5 chr11 1.14e7 1.14e7 T     G     intro… GALN…       0              0
#>  6 chr1  5.47e7 5.47e7 A     G     intro… MRPL…       0              0
#>  7 chr19 2.45e6 2.45e6 C     G     intro… LMNB2       0              0
#>  8 chr10 8.48e7 8.48e7 A     C     inter… NRG3…       0              0
#>  9 chr3  3.01e7 3.01e7 A     G     inter… RBMS…       0              0
#> 10 chr6  1.00e7 1.00e7 C     T     inter… LOC1…       0.509         53
#> # … with 490 more rows, and 5 more variables: Set6_42.NV <dbl>,
#> #   Set6_44.VAF <dbl>, Set6_44.DP <dbl>, Set6_44.NV <dbl>, patient <chr>

A dataframe that contains copy number segments wkth chr, from, to in hg19 coordinates, plus X.Major and X.minor for the number of copies of the major allele, and the minor (B-allele) allele in one of sample X’s segments. Chromosome names and other columns must be in the same format used by mutations.

# Example wide format for segments
example_input_formats$wide_segments
#> # A tibble: 85 x 7
#>    chr     from     to Set6_42.minor Set6_42.Major Set6_44.minor
#>    <chr>  <int>  <int>         <int>         <int>         <int>
#>  1 chr1  1.42e6 2.54e6             1             1             1
#>  2 chr1  3.43e6 4.71e7             0             1             0
#>  3 chr1  4.87e7 2.48e8             1             1             1
#>  4 chr1  2.48e8 2.48e8             0             2             0
#>  5 chr2  2.25e5 2.43e8             1             1             1
#>  6 chr3  2.91e6 1.97e8             1             1             1
#>  7 chr4  8.18e5 1.74e6             1             1             1
#>  8 chr4  1.75e6 1.06e7             1             1             1
#>  9 chr4  1.35e7 1.91e8             1             1             1
#> 10 chr4  1.91e8 1.91e8             1             2             1
#> # … with 75 more rows, and 1 more variable: Set6_44.Major <int>

Long format

This format is convenient if you generate calls independently for all samples, and you end up with a VCF file per sample, for instance.

The minimum information required are the same of the wide format:

A list of dataframes, where each dataframe contains mutations for a unique sample (instead than for all of the samples, as in the wide format). Mutation genomic coordinates must follow the same format as for the wide data, but this time the list entry for patient X can have columns DP, NV and VAF where the sample name does not appear. However, the list should be named so that the dataframe for sample X is named X.

A list of dataframes, where each dataframe contains segments. for a unique sample. Segments genomic coordinates must follow the same format as for the wide data, but this time the list entry for patient X can have columns Major and minor where the sample name does not appear. However, the list should be named so that the dataframe for sample X is named X.

# Example long format for mutations
example_input_formats$long_mutations
#> $Set42
#> # A tibble: 175 x 11
#>    chr      from     to ref   alt   region gene     VAF    DP    NV patient
#>    <chr>   <int>  <int> <chr> <chr> <chr>  <chr>  <dbl> <dbl> <dbl> <chr>  
#>  1 chr6   1.00e7 1.00e7 C     T     inter… LOC1… 0.509     53    27 Set6   
#>  2 chr16  2.06e7 2.06e7 C     T     intro… ACSM… 0.174     46     8 Set6   
#>  3 chr3   1.80e8 1.80e8 G     A     inter… LOC1… 0.314     70    22 Set6   
#>  4 chr7   9.77e7 9.77e7 T     A     inter… OCM2… 0.0789    38     3 Set6   
#>  5 chr2   1.39e8 1.39e8 A     C     intro… NXPH2 0.0659    91     6 Set6   
#>  6 chr4   4.92e7 4.92e7 G     T     inter… CWH4… 0.167     48     8 Set6   
#>  7 chr20  5.30e7 5.30e7 C     T     inter… PFDN… 0.0721   111     8 Set6   
#>  8 chr15  4.39e7 4.39e7 C     G     intro… CATS… 0.0323    93     3 Set6   
#>  9 chr5   1.13e8 1.13e8 T     C     inter… YTHD… 0.479     94    45 Set6   
#> 10 chr19  4.07e6 4.07e6 G     T     upstr… ZBTB… 0.366     82    30 Set6   
#> # … with 165 more rows
#> 
#> $Set44
#> # A tibble: 146 x 11
#>    chr      from     to ref   alt   region gene     VAF    DP    NV patient
#>    <chr>   <int>  <int> <chr> <chr> <chr>  <chr>  <dbl> <dbl> <dbl> <chr>  
#>  1 chr12  7.29e7 7.29e7 C     A     intro… TRHDE 0.116     43     5 Set6   
#>  2 chr17  2.66e7 2.66e7 G     A     inter… NLK(… 0.127     63     8 Set6   
#>  3 chr6   1.00e7 1.00e7 C     T     inter… LOC1… 0.513     39    20 Set6   
#>  4 chr3   1.80e8 1.80e8 G     A     inter… LOC1… 0.358     67    24 Set6   
#>  5 chr7   9.77e7 9.77e7 T     A     inter… OCM2… 0.12      25     3 Set6   
#>  6 chr7   5.72e7 5.72e7 G     T     inter… ZNF4… 0.0702    57     4 Set6   
#>  7 chr9   1.33e8 1.33e8 T     G     intro… FNBP1 0.0794    63     5 Set6   
#>  8 chr5   1.13e8 1.13e8 T     C     inter… YTHD… 0.397     63    25 Set6   
#>  9 chrY   1.33e7 1.33e7 C     T     inter… NONE… 0.176     51     9 Set6   
#> 10 chr12  3.79e7 3.79e7 A     G     inter… NONE… 0.0541    74     4 Set6   
#> # … with 136 more rows

A dataframe that contains copy number segments wkth chr, from, to in hg19 coordinates, plus X.Major and X.minor for the number of copies of the major allele, and the minor (B-allele) allele in each one of X’s segments.

# Example long format for segments
example_input_formats$long_segments
#> $Set42
#> # A tibble: 85 x 5
#>    chr        from        to minor Major
#>    <chr>     <int>     <int> <int> <int>
#>  1 chr1    1421022   2538349     1     1
#>  2 chr1    3428160  47139103     0     1
#>  3 chr1   48708250 247694949     1     1
#>  4 chr1  247726822 247726822     0     2
#>  5 chr2     224919 242557019     1     1
#>  6 chr3    2908335 197273077     1     1
#>  7 chr4     818440   1739252     1     1
#>  8 chr4    1746125  10599670     1     1
#>  9 chr4   13529990 190894246     1     1
#> 10 chr4  190903688 190904832     1     2
#> # … with 75 more rows
#> 
#> $Set44
#> # A tibble: 85 x 5
#>    chr        from        to minor Major
#>    <chr>     <int>     <int> <int> <int>
#>  1 chr1    1421022   2538349     1     1
#>  2 chr1    3428160  47139103     0     1
#>  3 chr1   48708250 247694949     1     1
#>  4 chr1  247726822 247726822     0     2
#>  5 chr2     224919 242557019     1     1
#>  6 chr3    2908335 197273077     1     1
#>  7 chr4     818440   1739252     1     1
#>  8 chr4    1746125  10599670     1     1
#>  9 chr4   13529990 190894246     1     1
#> 10 chr4  190903688 190904832     1     2
#> # … with 75 more rows
…
