…
    Example evoverse dataset.

data(example_evoverse)

    Format

    A simple dataset created and analyzed with the
evoverse package.

    Examples

data(example_evoverse)
head(example_evoverse)
#> $mutations
#> # A tibble: 36,000 x 5
#>    id                          sample  variable  value karyotype
#>    <chr>                       <chr>   <chr>     <dbl> <chr>    
#>  1 chr16:59352582:59352582:T:G Set7_55 VAF      0      1:1      
#>  2 chr16:62382810:62382810:G:T Set7_55 VAF      0      1:1      
#>  3 chr16:64333620:64333620:T:A Set7_55 VAF      0      1:1      
#>  4 chr16:66927635:66927635:T:C Set7_55 VAF      0      1:1      
#>  5 chr16:68665565:68665565:G:T Set7_55 VAF      0.0588 1:1      
#>  6 chr16:69314468:69314468:C:T Set7_55 VAF      0      1:1      
#>  7 chr16:70239087:70239087:A:C Set7_55 VAF      0.0678 1:1      
#>  8 chr16:76123096:76123096:T:C Set7_55 VAF      0      1:1      
#>  9 chr16:76581312:76581312:A:G Set7_55 VAF      0      1:1      
#> 10 chr16:79332345:79332345:A:T Set7_55 VAF      0      1:1      
#> # … with 35,990 more rows
#> 
#> $mutations_locations
#> # A tibble: 12,960 x 6
#>    chr       from       to ref   alt   id                         
#>    <chr>    <dbl>    <dbl> <chr> <chr> <chr>                      
#>  1 chr1  83649149 83649149 C     T     chr1:83649149:83649149:C:T 
#>  2 chr16 51232366 51232366 T     G     chr16:51232366:51232366:T:G
#>  3 chr16 51883258 51883258 T     A     chr16:51883258:51883258:T:A
#>  4 chr16 56152337 56152337 G     T     chr16:56152337:56152337:G:T
#>  5 chr16 56284545 56284545 A     C     chr16:56284545:56284545:A:C
#>  6 chr16 56859095 56859095 A     T     chr16:56859095:56859095:A:T
#>  7 chr16 57676326 57676326 A     C     chr16:57676326:57676326:A:C
#>  8 chr16 59352582 59352582 T     G     chr16:59352582:59352582:T:G
#>  9 chr16 59515053 59515053 A     C     chr16:59515053:59515053:A:C
#> 10 chr16 59978647 59978647 T     G     chr16:59978647:59978647:T:G
#> # … with 12,950 more rows
#> 
#> $mutations_annotations
#> # A tibble: 12,960 x 7
#>    gene             vaf_normal   cosmic function. mutlocation region  id        
#>    <chr>            <chr>        <chr>  <chr>     <chr>       <chr>   <chr>     
#>  1 LINC01361(dist=… 0.041666666… NA     NA        NA          interg… chr1:8364…
#>  2 SALL1(dist=4718… 0            NA     NA        NA          interg… chr16:512…
#>  3 LINC01571(dist=… 0            NA     NA        NA          interg… chr16:518…
#>  4 LOC283856        0            NA     NA        NA          ncRNA_… chr16:561…
#>  5 GNAO1            0            NA     NA        NA          intron… chr16:562…
#>  6 NUP93            0            NA     NA        NA          intron… chr16:568…
#>  7 ADGRG1           0            NA     NA        NA          intron… chr16:576…
#>  8 GOT2(dist=58432… 0            NA     NA        NA          interg… chr16:593…
#>  9 GOT2(dist=74679… 0            NA     NA        NA          interg… chr16:595…
#> 10 LOC101927580     0            NA     NA        NA          ncRNA_… chr16:599…
#> # … with 12,950 more rows
…
