Example data in mvMOBSTER format. — example_mvmobster • mvmobster
…
    Format

    A tibble that represents the cytobands for hg19 chromosome
(chr, from, to, cytoband and region).

    References

    hg19

    Examples

data(example_mvmobster)
head(example_mvmobster)
#> $muts
#> # A tibble: 500 x 37
#>    id    patient region gene  chr     from     to ref   alt   vartype function.
#>    <chr> <chr>   <chr>  <chr> <chr>  <int>  <int> <chr> <chr> <chr>   <chr>    
#>  1 chr5… Set6    inter… LYSM… chr5  8.98e7 8.98e7 G     A     SNP     NA       
#>  2 chrY… Set6    inter… TTTY… chrY  1.00e7 1.00e7 G     T     SNP     NA       
#>  3 chr1… Set6    intro… TRHDE chr12 7.29e7 7.29e7 C     A     SNP     NA       
#>  4 chr1… Set6    inter… NLK(… chr17 2.66e7 2.66e7 G     A     SNP     NA       
#>  5 chr1… Set6    intro… GALN… chr11 1.14e7 1.14e7 T     G     SNP     NA       
#>  6 chr1… Set6    intro… MRPL… chr1  5.47e7 5.47e7 A     G     SNP     NA       
#>  7 chr1… Set6    intro… LMNB2 chr19 2.45e6 2.45e6 C     G     SNP     NA       
#>  8 chr1… Set6    inter… NRG3… chr10 8.48e7 8.48e7 A     C     SNP     NA       
#>  9 chr3… Set6    inter… RBMS… chr3  3.01e7 3.01e7 A     G     SNP     NA       
#> 10 chr6… Set6    inter… LOC1… chr6  1.00e7 1.00e7 C     T     SNP     NA       
#> # … with 490 more rows, and 26 more variables: mutlocation <chr>, cosmic <chr>,
#> #   Set6_42.VAF <dbl>, Set6_44.VAF <dbl>, Set6_45.VAF <dbl>, Set6_46.VAF <dbl>,
#> #   Set6_47.VAF <dbl>, Set6_48.VAF <dbl>, Set6_42.DP <dbl>, Set6_44.DP <dbl>,
#> #   Set6_45.DP <dbl>, Set6_46.DP <dbl>, Set6_47.DP <dbl>, Set6_48.DP <dbl>,
#> #   Set6_42.NV <dbl>, Set6_44.NV <dbl>, Set6_45.NV <dbl>, Set6_46.NV <dbl>,
#> #   Set6_47.NV <dbl>, Set6_48.NV <dbl>, Set6_42_N.VAF <dbl>,
#> #   Set6_44_N.VAF <dbl>, Set6_45_N.VAF <dbl>, Set6_46_N.VAF <dbl>,
#> #   Set6_47_N.VAF <dbl>, Set6_48_N.VAF <dbl>
…
